module gitlab.com/hstefan/cardoncio

go 1.18

require (
	github.com/go-telegram-bot-api/telegram-bot-api/v5 v5.5.1
	github.com/golang/protobuf v1.5.2
	github.com/lib/pq v1.10.5
	github.com/olebedev/when v0.0.0-20211212231525-59bd4edcf9d6
	github.com/sirupsen/logrus v1.8.1
	github.com/spf13/cobra v1.4.0
	github.com/spf13/viper v1.11.0
	google.golang.org/grpc v1.46.0
	google.golang.org/protobuf v1.28.0
)

require (
	github.com/AlekSi/pointer v1.2.0 // indirect
	github.com/fsnotify/fsnotify v1.5.4 // indirect
	github.com/hashicorp/hcl v1.0.0 // indirect
	github.com/inconshreveable/mousetrap v1.0.0 // indirect
	github.com/magiconair/properties v1.8.6 // indirect
	github.com/mitchellh/mapstructure v1.5.0 // indirect
	github.com/pelletier/go-toml v1.9.5 // indirect
	github.com/pelletier/go-toml/v2 v2.0.0 // indirect
	github.com/pkg/errors v0.9.1 // indirect
	github.com/spf13/afero v1.8.2 // indirect
	github.com/spf13/cast v1.4.1 // indirect
	github.com/spf13/jwalterweatherman v1.1.0 // indirect
	github.com/spf13/pflag v1.0.5 // indirect
	github.com/subosito/gotenv v1.2.0 // indirect
	golang.org/x/net v0.0.0-20220425223048-2871e0cb64e4 // indirect
	golang.org/x/sys v0.0.0-20220503163025-988cb79eb6c6 // indirect
	golang.org/x/text v0.3.7 // indirect
	google.golang.org/genproto v0.0.0-20220505152158-f39f71e6c8f3 // indirect
	gopkg.in/ini.v1 v1.66.4 // indirect
	gopkg.in/yaml.v2 v2.4.0 // indirect
	gopkg.in/yaml.v3 v3.0.0-20210107192922-496545a6307b // indirect
)
